…
In the same list we also set the date/time to midnight on 15 May 2019. The time
zone is Eastern Daylight Time, which is GMT-4, incidated by the -04:00 at the
end of the time text string.

Finally, we fetch the forecast for today at RDU with darksky::get_forecast_for(). I only need the hourly forecast so I’ll exclude
daily and currently results.

rdu_forecast <- get_forecast_for(RDU$lat, RDU$lon, RDU$time, exclude = "daily,currently")

Let’s take a look at the result:

as_tibble(rdu_forecast$hourly)

# # A tibble: 24 x 18
#    time                summary icon  precipIntensity precipProbabili…
#    <dttm>              <chr>   <chr>           <dbl>            <dbl>
#  1 2019-05-15 05:00:00 Clear   clea…           0                 0   
#  2 2019-05-15 06:00:00 Clear   clea…           0                 0   
#  3 2019-05-15 07:00:00 Clear   clea…           0                 0   
#  4 2019-05-15 08:00:00 Clear   clea…           0                 0   
#  5 2019-05-15 09:00:00 Clear   clea…           0                 0   
#  6 2019-05-15 10:00:00 Clear   clea…           0                 0   
#  7 2019-05-15 11:00:00 Clear   clea…           0                 0   
#  8 2019-05-15 12:00:00 Clear   clea…           0                 0   
#  9 2019-05-15 13:00:00 Clear   clea…           0                 0   
# 10 2019-05-15 14:00:00 Clear   clea…           0.001             0.01
# # … with 14 more rows, and 13 more variables: temperature <dbl>,
# #   apparentTemperature <dbl>, dewPoint <dbl>, humidity <dbl>,
# #   pressure <dbl>, windSpeed <dbl>, windGust <dbl>, windBearing <int>,
# #   cloudCover <dbl>, uvIndex <int>, visibility <dbl>, ozone <dbl>,
# #   precipType <chr>
…
