…
Common words

Using the tidytext package, I took a look at the most common words in the replies, excluding any stop words.

words <- replies %>%
  unnest_tokens(word, text, "tweets") %>%
  anti_join(stop_words) %>%
  count(word, sort = TRUE)
words

## # A tibble: 13,121 x 2
##    word        n
##    <chr>   <int>
##  1 march    1451
##  2 home     1145
##  3 day       839
##  4 amp       800
##  5 time      603
##  6 week      537
##  7 school    517
##  8 weeks     511
##  9 started   495
## 10 2020      478
## # … with 13,111 more rows
…
bigrams

## # A tibble: 75,521 x 2
##    ngram            n
##    <chr>        <int>
##  1 shut down      296
##  2 on march       287
##  3 i remember     220
##  4 year ago       207
##  5 spring break   199
##  6 my husband     176
##  7 next day       166
##  8 from home      165
##  9 the nba        162
## 10 a week         160
## # … with 75,511 more rows
…
themoment

## # A tibble: 90 x 4
##    month      day n_total date      
##    <chr>    <dbl>   <int> <date>    
##  1 December    14       1 2019-12-14
##  2 December    28       1 2019-12-28
##  3 December    31       2 2019-12-31
##  4 January      3       1 2020-01-03
##  5 January      6       1 2020-01-06
##  6 January     10       1 2020-01-10
##  7 January     11       1 2020-01-11
##  8 January     16       1 2020-01-16
##  9 January     19       1 2020-01-19
## 10 January     20       3 2020-01-20
## # … with 80 more rows

Let’s take a look at which dates were most commonly mentioned.

themoment %>%
  arrange(desc(n_total))

## # A tibble: 90 x 4
##    month   day n_total date      
##    <chr> <dbl>   <int> <date>    
##  1 March    13     205 2020-03-13
##  2 March    11     140 2020-03-11
##  3 March    12     128 2020-03-12
##  4 March     9      63 2020-03-09
##  5 March    10      58 2020-03-10
##  6 March    14      48 2020-03-14
##  7 March     6      47 2020-03-06
##  8 March     7      46 2020-03-07
##  9 March    16      46 2020-03-16
## 10 March    15      44 2020-03-15
## # … with 80 more rows
…
There are 295 such tweets, which is more than what’s shown in the earlier visualisation.

To get a sense of what’s in these tweets, I can again take a look at common words in them. But first, I’ll remove the text strings I searched for, since they will obviously be very common.

march_13_words <- march_13_tweets %>%
  mutate(text = str_remove_all(text, march_13_regex)) %>%
  unnest_tokens(word, text) %>%
  anti_join(stop_words)

## Joining, by = "word"

march_13_words %>%
  count(word, sort = TRUE)

## # A tibble: 1,917 x 2
##    word       n
##    <chr>  <int>
##  1 home     102
##  2 school    89
##  3 day       82
##  4 3         73
##  5 2020      54
##  6 friday    54
##  7 weeks     50
##  8 march     44
##  9 amp       40
## 10 closed    39
## # … with 1,907 more rows
…
